Animated Time Plot for Camera Trap Data
…
[[2]]
# A tibble: 138 × 2
   time                date_choice
   <dttm>              <chr>      
 1 2021-08-31 11:00:00 2022-08-28 
 2 2021-09-01 06:46:00 2022-08-28 
 3 2021-09-02 07:24:00 2022-08-28 
 4 2021-08-15 14:47:00 2022-08-28 
 5 2021-08-23 16:36:00 2022-08-28 
 6 2021-08-24 08:01:00 2022-08-28 
 7 2021-08-24 11:41:00 2022-08-28 
 8 2021-08-24 13:05:00 2022-08-28 
 9 2021-08-26 07:54:00 2022-08-28 
10 2021-08-28 08:33:00 2022-08-28 
# ℹ 128 more rows
…
